mtllib master.mtl
v  0  0  0
v  305  0  0
v  305  220  0
v  0  220  0
v  0  0  220
v  305  0  220
v  305  220  220
v  0  220  220

vn  0  0  -1
vn  0  0  1
vn  1  1  0
vn  -1 0  0
vn  1  0  0
vn -1  0  0

usemtl yellow
f  1 2 3 4
f  5 6 7 8
f  2 6 7 3
f  1 5 8 4
f  4 3 7 8
